…
After building our model, we’re going to select version that has the lowest mean-squared error and get it into a nice format using the broom package’s tidy function.

set.seed(24601)

cv_lasso_model <- cv.glmnet(feature_matrix, # Predictors (features)
                            ratings, # Response variable (ratings)
                            nfolds = 100) # Folds for cross-validation

cv_lasso_model_tidy <- cv_lasso_model$glmnet.fit %>%
  tidy() %>%
  filter(lambda == cv_lasso_model$lambda.min)

cv_lasso_model_tidy

## # A tibble: 1,031 x 5
##    term                  step estimate lambda dev.ratio
##    <chr>                <dbl>    <dbl>  <dbl>     <dbl>
##  1 (Intercept)             41   5.23   0.0382     0.412
##  2 Year: 2012              41  -0.117  0.0382     0.412
##  3 Language: English       41  -0.492  0.0382     0.412
##  4 Genre: Drama            41   0.332  0.0382     0.412
##  5 Cast: Veronica Ricci    41  -0.374  0.0382     0.412
##  6 Genre: Comedy           41   0.208  0.0382     0.412
##  7 Genre: Crime            41   0.234  0.0382     0.412
##  8 Cast: Nao Ohmori        41   0.0187 0.0382     0.412
##  9 Language: Japanese      41   0.0602 0.0382     0.412
## 10 Genre: Mystery          41   0.204  0.0382     0.412
## # ... with 1,021 more rows
…
